<?xml version="1.0" encoding="UTF-8" standalone="no"?>
<!-- Created with Inkscape (http://www.inkscape.org/) -->

<svg
   xmlns:dc="http://purl.org/dc/elements/1.1/"
   xmlns:cc="http://creativecommons.org/ns#"
   xmlns:rdf="http://www.w3.org/1999/02/22-rdf-syntax-ns#"
   xmlns:svg="http://www.w3.org/2000/svg"
   xmlns="http://www.w3.org/2000/svg"
   xmlns:sodipodi="http://sodipodi.sourceforge.net/DTD/sodipodi-0.dtd"
   xmlns:inkscape="http://www.inkscape.org/namespaces/inkscape"
   width="220.11072mm"
   height="140.22461mm"
   viewBox="0 0 779.91987 496.85889"
   id="svg3505"
   version="1.1"
   inkscape:version="0.91 r13725"
   sodipodi:docname="idbre.svg">
  <defs
     id="defs3507">
    <marker
       style="overflow:visible"
       inkscape:stockid="InfiniteLineStart"
       id="InfiniteLineStart"
       refX="0"
       refY="0"
       orient="auto"
       inkscape:isstock="true">
      <g
         id="g4501"
         style="fill:#000000;fill-opacity:1;stroke:#000000;stroke-opacity:1"
         transform="translate(-13,0)">
        <circle
           id="circle4503"
           r="0.80000001"
           cy="0"
           cx="3"
           style="fill:#000000;fill-opacity:1;stroke:#000000;stroke-opacity:1" />
        <circle
           id="circle4505"
           r="0.80000001"
           cy="0"
           cx="6.5"
           style="fill:#000000;fill-opacity:1;stroke:#000000;stroke-opacity:1" />
        <circle
           id="circle4507"
           r="0.80000001"
           cy="0"
           cx="10"
           style="fill:#000000;fill-opacity:1;stroke:#000000;stroke-opacity:1" />
      </g>
    </marker>
    <marker
       inkscape:stockid="Arrow2Mend"
       orient="auto"
       refY="0"
       refX="0"
       id="Arrow2Mend-3"
       style="overflow:visible"
       inkscape:isstock="true">
      <path
         inkscape:connector-curvature="0"
         id="path4284-7"
         style="fill:#000000;fill-opacity:1;fill-rule:evenodd;stroke:#000000;stroke-width:0.625;stroke-linejoin:round;stroke-opacity:1"
         d="M 8.7185878,4.0337352 -2.2072895,0.01601326 8.7185884,-4.0017078 c -1.7454984,2.3720609 -1.7354408,5.6174519 -6e-7,8.035443 z"
         transform="scale(-0.6,-0.6)" />
    </marker>
  </defs>
  <sodipodi:namedview
     id="base"
     pagecolor="#ffffff"
     bordercolor="#666666"
     borderopacity="1.0"
     inkscape:pageopacity="0.0"
     inkscape:pageshadow="2"
     inkscape:zoom="3.436097"
     inkscape:cx="222.55218"
     inkscape:cy="158.56858"
     inkscape:document-units="px"
     inkscape:current-layer="layer1"
     showgrid="false"
     showguides="true"
     inkscape:guide-bbox="true"
     inkscape:window-width="1600"
     inkscape:window-height="836"
     inkscape:window-x="0"
     inkscape:window-y="27"
     inkscape:window-maximized="1"
     fit-margin-top="10"
     fit-margin-left="10"
     fit-margin-right="10"
     fit-margin-bottom="10">
    <sodipodi:guide
       position="472.71349,248.38721"
       orientation="0,1"
       id="guide4641" />
    <sodipodi:guide
       position="182.303,255.81598"
       orientation="1,0"
       id="guide4645"
       inkscape:label=""
       inkscape:color="rgb(0,0,255)" />
    <sodipodi:guide
       position="186,42.937503"
       orientation="0,1"
       id="guide5053" />
    <sodipodi:guide
       position="242.51325,382.68945"
       orientation="0,1"
       id="guide5430" />
    <sodipodi:guide
       position="136.5,67.625005"
       orientation="0.0015776638,-0.99999876"
       id="guide5432" />
    <sodipodi:guide
       position="429.45792,248.38721"
       orientation="1,0"
       id="guide5461"
       inkscape:label=""
       inkscape:color="rgb(0,0,255)" />
    <sodipodi:guide
       position="326.41877,248.38721"
       orientation="1,0"
       id="guide5463"
       inkscape:label=""
       inkscape:color="rgb(0,0,255)" />
    <sodipodi:guide
       position="379.23092,210.78537"
       orientation="1,0"
       id="guide5633"
       inkscape:label=""
       inkscape:color="rgb(0,0,255)" />
    <sodipodi:guide
       position="531.00192,382.68945"
       orientation="1,0"
       id="guide5662"
       inkscape:label=""
       inkscape:color="rgb(0,0,255)" />
    <sodipodi:guide
       position="581.22992,311.47556"
       orientation="1,0"
       id="guide5664"
       inkscape:label=""
       inkscape:color="rgb(0,0,255)" />
    <sodipodi:guide
       position="631.45792,329.73813"
       orientation="1,0"
       id="guide6063"
       inkscape:label=""
       inkscape:color="rgb(0,0,255)" />
    <sodipodi:guide
       position="86.225001,164.26433"
       orientation="1,0"
       id="guide4554"
       inkscape:label=""
       inkscape:color="rgb(0,0,255)" />
    <sodipodi:guide
       position="278.381,159.16782"
       orientation="1,0"
       id="guide4556"
       inkscape:label=""
       inkscape:color="rgb(0,0,255)" />
    <sodipodi:guide
       position="90.332892,205.94486"
       orientation="0,1"
       id="guide4558" />
    <sodipodi:guide
       position="73.627495,165.463"
       orientation="0,1"
       id="guide4560" />
    <sodipodi:guide
       position="86.225001,124.50001"
       orientation="0,1"
       id="guide4562" />
    <sodipodi:guide
       position="102.08854,83.924742"
       orientation="0,1"
       id="guide4564" />
    <sodipodi:guide
       position="38.186145,248.38721"
       orientation="1,0"
       id="guide4581" />
    <sodipodi:guide
       position="182.303,461.00003"
       orientation="0,1"
       id="guide4488" />
    <sodipodi:guide
       position="225.25,22.250002"
       orientation="0,1"
       id="guide4490" />
  </sodipodi:namedview>
  <metadata
     id="metadata3510">
    <rdf:RDF>
      <cc:Work
         rdf:about="">
        <dc:format>image/svg+xml</dc:format>
        <dc:type
           rdf:resource="http://purl.org/dc/dcmitype/StillImage" />
        <dc:title />
      </cc:Work>
    </rdf:RDF>
  </metadata>
  <g
     inkscape:label="Layer 1"
     inkscape:groupmode="layer"
     id="layer1"
     transform="translate(23.784919,-15.319087)">
    <g
       transform="translate(-214.11345,-829.43579)"
       id="g3513">
      <g
         id="g8634-5-3"
         transform="translate(113.10351,840.34353)">
        <path
           style="opacity:1;fill:#e6acac;fill-opacity:1;stroke:#000000;stroke-width:2.5;stroke-linejoin:miter;stroke-miterlimit:4;stroke-dasharray:none;stroke-opacity:1"
           d="m 204.58903,41.09442 77.0526,0 32.85287,32.53724 0,122.46856 -109.90547,0 z"
           id="rect3336-6-5"
           inkscape:connector-curvature="0"
           sodipodi:nodetypes="cccccc" />
        <path
           style="fill:#ffffff;fill-rule:evenodd;stroke:#000000;stroke-width:2.50157475;stroke-linecap:butt;stroke-linejoin:miter;stroke-miterlimit:4;stroke-dasharray:none;stroke-opacity:1"
           d="m 280.6661,41.970693 0.0799,33.320517 33.25818,-0.265165"
           id="path4143-2-3"
           inkscape:connector-curvature="0"
           sodipodi:nodetypes="ccc" />
      </g>
      <text
         sodipodi:linespacing="125%"
         id="text4165-5"
         y="1025.1985"
         x="393.21368"
         style="font-style:normal;font-weight:normal;font-size:40px;line-height:125%;font-family:Sans;letter-spacing:0px;word-spacing:0px;fill:#000000;fill-opacity:1;stroke:none;stroke-width:0;stroke-linecap:butt;stroke-linejoin:miter;stroke-miterlimit:4;stroke-dasharray:none;stroke-opacity:1"
         xml:space="preserve"><tspan
           style="font-style:normal;font-variant:normal;font-weight:normal;font-stretch:normal;font-size:28.125px;font-family:cantarell;-inkscape-font-specification:cantarell;stroke-width:0;stroke-miterlimit:4;stroke-dasharray:none"
           y="1025.1985"
           x="393.21368"
           id="tspan4167-0"
           sodipodi:role="line">.o</tspan></text>
      <text
         sodipodi:linespacing="125%"
         id="text6092"
         y="933.07642"
         x="373.51642"
         style="font-style:normal;font-weight:normal;font-size:40px;line-height:125%;font-family:Sans;text-align:center;letter-spacing:0px;word-spacing:0px;text-anchor:middle;fill:#000000;fill-opacity:1;stroke:none;stroke-width:1px;stroke-linecap:butt;stroke-linejoin:miter;stroke-opacity:1"
         xml:space="preserve"><tspan
           id="tspan6096"
           style="font-style:normal;font-variant:normal;font-weight:normal;font-stretch:normal;font-size:15px;font-family:monospace;-inkscape-font-specification:monospace"
           y="933.07642"
           x="373.51642"
           sodipodi:role="line">101100110</tspan><tspan
           id="tspan6104"
           style="font-style:normal;font-variant:normal;font-weight:normal;font-stretch:normal;font-size:15px;font-family:monospace;-inkscape-font-specification:monospace"
           y="951.82642"
           x="373.51642"
           sodipodi:role="line">011000111</tspan><tspan
           id="tspan6098"
           style="font-style:normal;font-variant:normal;font-weight:normal;font-stretch:normal;font-size:15px;font-family:monospace;-inkscape-font-specification:monospace"
           y="970.57642"
           x="373.51642"
           sodipodi:role="line">010010010</tspan></text>
    </g>
    <text
       xml:space="preserve"
       style="font-style:normal;font-weight:normal;font-size:40px;line-height:125%;font-family:Sans;letter-spacing:0px;word-spacing:0px;fill:#000000;fill-opacity:1;stroke:none;stroke-width:1px;stroke-linecap:butt;stroke-linejoin:miter;stroke-opacity:1"
       x="92.85714"
       y="334.50507"
       id="text3731"
       sodipodi:linespacing="125%"><tspan
         sodipodi:role="line"
         id="tspan3733"
         x="92.85714"
         y="334.50507" /></text>
    <rect
       style="fill:#678a8a;fill-opacity:1;stroke:#000000;stroke-width:2.1628108;stroke-linecap:butt;stroke-linejoin:round;stroke-miterlimit:4;stroke-dasharray:none;stroke-dashoffset:0;stroke-opacity:1"
       id="rect5501"
       width="423.45078"
       height="99.332283"
       x="-481.66351"
       y="406.92279"
       ry="4.8144197"
       transform="matrix(0,-1,1,0,0,0)" />
    <text
       xml:space="preserve"
       style="font-style:normal;font-variant:normal;font-weight:normal;font-stretch:normal;font-size:36.14625168px;line-height:125%;font-family:Sans;-inkscape-font-specification:'Sans, Normal';text-align:start;letter-spacing:0px;word-spacing:0px;writing-mode:lr-tb;text-anchor:start;fill:#000000;fill-opacity:1;stroke:none;stroke-width:0;stroke-linecap:butt;stroke-linejoin:miter;stroke-miterlimit:4;stroke-dasharray:none;stroke-opacity:1"
       x="456.24881"
       y="191.80687"
       id="text4222-3"
       sodipodi:linespacing="125%"><tspan
         sodipodi:role="line"
         id="tspan4224-7"
         x="456.24881"
         y="191.80687"
         style="font-style:normal;font-variant:normal;font-weight:normal;font-stretch:normal;font-size:28.12500191px;line-height:125%;font-family:cantarell;-inkscape-font-specification:cantarell;text-align:center;writing-mode:lr-tb;text-anchor:middle;stroke-width:0;stroke-miterlimit:4;stroke-dasharray:none">L</tspan><tspan
         sodipodi:role="line"
         x="456.24881"
         y="226.96312"
         style="font-style:normal;font-variant:normal;font-weight:normal;font-stretch:normal;font-size:28.12500191px;line-height:125%;font-family:cantarell;-inkscape-font-specification:cantarell;text-align:center;writing-mode:lr-tb;text-anchor:middle;stroke-width:0;stroke-miterlimit:4;stroke-dasharray:none"
         id="tspan3506">i</tspan><tspan
         sodipodi:role="line"
         x="456.24881"
         y="262.11938"
         style="font-style:normal;font-variant:normal;font-weight:normal;font-stretch:normal;font-size:28.12500191px;line-height:125%;font-family:cantarell;-inkscape-font-specification:cantarell;text-align:center;writing-mode:lr-tb;text-anchor:middle;stroke-width:0;stroke-miterlimit:4;stroke-dasharray:none"
         id="tspan3508">n</tspan><tspan
         sodipodi:role="line"
         x="456.24881"
         y="297.27563"
         style="font-style:normal;font-variant:normal;font-weight:normal;font-stretch:normal;font-size:28.12500191px;line-height:125%;font-family:cantarell;-inkscape-font-specification:cantarell;text-align:center;writing-mode:lr-tb;text-anchor:middle;stroke-width:0;stroke-miterlimit:4;stroke-dasharray:none"
         id="tspan3510">k</tspan><tspan
         sodipodi:role="line"
         x="456.24881"
         y="332.43188"
         style="font-style:normal;font-variant:normal;font-weight:normal;font-stretch:normal;font-size:28.12500191px;line-height:125%;font-family:cantarell;-inkscape-font-specification:cantarell;text-align:center;writing-mode:lr-tb;text-anchor:middle;stroke-width:0;stroke-miterlimit:4;stroke-dasharray:none"
         id="tspan3512">e</tspan><tspan
         sodipodi:role="line"
         x="456.24881"
         y="367.58813"
         style="font-style:normal;font-variant:normal;font-weight:normal;font-stretch:normal;font-size:28.12500191px;line-height:125%;font-family:cantarell;-inkscape-font-specification:cantarell;text-align:center;writing-mode:lr-tb;text-anchor:middle;stroke-width:0;stroke-miterlimit:4;stroke-dasharray:none"
         id="tspan3514">r</tspan></text>
    <g
       id="g8432-8"
       transform="matrix(0,-1,1,0,220.22159,150.76104)"
       style="fill:#ffdebd;fill-opacity:1">
      <g
         transform="translate(-239.5625,-90.75)"
         style="fill:#ffdebd;fill-opacity:1"
         id="g8400-4">
        <g
           id="g6647-7"
           transform="matrix(-0.00249265,0.82336801,-0.97910897,-0.00209616,691.24623,204.63451)"
           style="fill:#ffdebd;fill-opacity:1;stroke-width:2.33428192;stroke-miterlimit:4;stroke-dasharray:none">
          <g
             transform="translate(0,9.0101524)"
             id="g6637-6"
             style="fill:#ffdebd;fill-opacity:1;stroke-width:2.33428192;stroke-miterlimit:4;stroke-dasharray:none">
            <path
               style="fill:#ffdebd;fill-opacity:1;fill-rule:evenodd;stroke:#000000;stroke-width:2.33428192;stroke-linecap:butt;stroke-linejoin:miter;stroke-miterlimit:4;stroke-dasharray:none;stroke-opacity:1"
               d="m 25.674457,421.47823 -2.87e-4,-10.35039 26.597141,19.28125 -26.588912,19.56208 -0.03787,-10.45401 -24.0757612,0.087 0.033258,-18.09649 z"
               id="path6620-8-61"
               inkscape:connector-curvature="0"
               sodipodi:nodetypes="cccccccc" />
          </g>
        </g>
      </g>
    </g>
    <g
       id="g8432-8-9"
       transform="matrix(0,-1,1,0,220.25117,388.65827)"
       style="fill:#ffdebd;fill-opacity:1">
      <g
         transform="translate(-239.5625,-90.75)"
         style="fill:#ffdebd;fill-opacity:1"
         id="g8400-4-9">
        <g
           id="g6647-7-8"
           transform="matrix(-0.00249265,0.82336801,-0.97910897,-0.00209616,691.24623,204.63451)"
           style="fill:#ffdebd;fill-opacity:1;stroke-width:2.33428192;stroke-miterlimit:4;stroke-dasharray:none">
          <g
             transform="translate(0,9.0101524)"
             id="g6637-6-0"
             style="fill:#ffdebd;fill-opacity:1;stroke-width:2.33428192;stroke-miterlimit:4;stroke-dasharray:none">
            <path
               style="fill:#ffdebd;fill-opacity:1;fill-rule:evenodd;stroke:#000000;stroke-width:2.33428192;stroke-linecap:butt;stroke-linejoin:miter;stroke-miterlimit:4;stroke-dasharray:none;stroke-opacity:1"
               d="m 25.674457,421.47823 -2.87e-4,-10.35039 26.597141,19.28125 -26.588912,19.56208 -0.03787,-10.45401 -24.0757612,0.087 0.033258,-18.09649 z"
               id="path6620-8-61-3"
               inkscape:connector-curvature="0"
               sodipodi:nodetypes="cccccccc" />
          </g>
        </g>
      </g>
    </g>
    <g
       id="g8432-8-9-1"
       transform="matrix(0,-1,1,0,421.85414,288.7953)"
       style="fill:#ffdebd;fill-opacity:1">
      <g
         transform="translate(-239.5625,-90.75)"
         style="fill:#ffdebd;fill-opacity:1"
         id="g8400-4-9-3">
        <g
           id="g6647-7-8-7"
           transform="matrix(-0.00249265,0.82336801,-0.97910897,-0.00209616,691.24623,204.63451)"
           style="fill:#ffdebd;fill-opacity:1;stroke-width:2.33428192;stroke-miterlimit:4;stroke-dasharray:none">
          <g
             transform="translate(0,9.0101524)"
             id="g6637-6-0-4"
             style="fill:#ffdebd;fill-opacity:1;stroke-width:2.33428192;stroke-miterlimit:4;stroke-dasharray:none">
            <path
               style="fill:#ffdebd;fill-opacity:1;fill-rule:evenodd;stroke:#000000;stroke-width:2.33428192;stroke-linecap:butt;stroke-linejoin:miter;stroke-miterlimit:4;stroke-dasharray:none;stroke-opacity:1"
               d="m 25.674457,421.47823 -2.87e-4,-10.35039 26.597141,19.28125 -26.588912,19.56208 -0.03787,-10.45401 -24.0757612,0.087 0.033258,-18.09649 z"
               id="path6620-8-61-3-8"
               inkscape:connector-curvature="0"
               sodipodi:nodetypes="cccccccc" />
          </g>
        </g>
      </g>
    </g>
    <g
       id="g7473">
      <g
         id="g8634-5-3-8"
         transform="translate(404.95737,147.08377)">
        <path
           style="opacity:1;fill:#e6acac;fill-opacity:1;stroke:#000000;stroke-width:2.5;stroke-linejoin:miter;stroke-miterlimit:4;stroke-dasharray:none;stroke-opacity:1"
           d="m 204.58903,41.09442 77.0526,0 32.85287,32.53724 0,122.46856 -109.90547,0 z"
           id="rect3336-6-5-0"
           inkscape:connector-curvature="0"
           sodipodi:nodetypes="cccccc" />
        <path
           style="fill:#ffffff;fill-rule:evenodd;stroke:#000000;stroke-width:2.50157475;stroke-linecap:butt;stroke-linejoin:miter;stroke-miterlimit:4;stroke-dasharray:none;stroke-opacity:1"
           d="m 280.6661,41.970693 0.0799,33.320517 33.25818,-0.265165"
           id="path4143-2-3-3"
           inkscape:connector-curvature="0"
           sodipodi:nodetypes="ccc" />
      </g>
      <text
         sodipodi:linespacing="125%"
         id="text4165-5-6"
         y="331.93872"
         x="667.06757"
         style="font-style:normal;font-weight:normal;font-size:40px;line-height:125%;font-family:Sans;letter-spacing:0px;word-spacing:0px;fill:#000000;fill-opacity:1;stroke:none;stroke-width:0;stroke-linecap:butt;stroke-linejoin:miter;stroke-miterlimit:4;stroke-dasharray:none;stroke-opacity:1"
         xml:space="preserve"><tspan
           style="font-style:normal;font-variant:normal;font-weight:normal;font-stretch:normal;font-size:28.125px;font-family:cantarell;-inkscape-font-specification:cantarell;stroke-width:0;stroke-miterlimit:4;stroke-dasharray:none"
           y="331.93872"
           x="667.06757"
           id="tspan4167-0-0"
           sodipodi:role="line">.bin</tspan></text>
      <text
         sodipodi:linespacing="125%"
         id="text6092-7"
         y="239.81665"
         x="665.3703"
         style="font-style:normal;font-weight:normal;font-size:40px;line-height:125%;font-family:Sans;text-align:center;letter-spacing:0px;word-spacing:0px;text-anchor:middle;fill:#000000;fill-opacity:1;stroke:none;stroke-width:1px;stroke-linecap:butt;stroke-linejoin:miter;stroke-opacity:1"
         xml:space="preserve"><tspan
           id="tspan6096-8"
           style="font-style:normal;font-variant:normal;font-weight:normal;font-stretch:normal;font-size:15px;font-family:monospace;-inkscape-font-specification:monospace"
           y="239.81665"
           x="665.3703"
           sodipodi:role="line">100101000</tspan><tspan
           style="font-style:normal;font-variant:normal;font-weight:normal;font-stretch:normal;font-size:15px;font-family:monospace;-inkscape-font-specification:monospace"
           y="258.56665"
           x="665.3703"
           sodipodi:role="line"
           id="tspan6065">011001101</tspan><tspan
           id="tspan6098-2"
           style="font-style:normal;font-variant:normal;font-weight:normal;font-stretch:normal;font-size:15px;font-family:monospace;-inkscape-font-specification:monospace"
           y="277.31665"
           x="665.3703"
           sodipodi:role="line">011000100</tspan></text>
    </g>
    <rect
       style="fill:#678a8a;fill-opacity:1;stroke:#000000;stroke-width:2.71279526;stroke-linecap:butt;stroke-linejoin:miter;stroke-miterlimit:4;stroke-dasharray:none;stroke-opacity:1"
       id="rect4220"
       width="291.00793"
       height="242.08017"
       x="13.004521"
       y="246.14908"
       ry="9.1792488" />
    <g
       id="g4349">
      <rect
         style="fill:#8ab88a;fill-opacity:1;stroke:#000000;stroke-width:2.50000024;stroke-linecap:butt;stroke-linejoin:miter;stroke-miterlimit:4;stroke-dasharray:none;stroke-opacity:1"
         id="rect4226-5"
         width="82.140984"
         height="31.847778"
         x="20.988689"
         y="325.44934" />
      <text
         sodipodi:linespacing="125%"
         id="text4243-2-61"
         y="346.51169"
         x="61.783913"
         style="font-style:normal;font-variant:normal;font-weight:normal;font-stretch:normal;font-size:13.75000095px;line-height:125%;font-family:Sans;-inkscape-font-specification:'Sans, Normal';text-align:center;letter-spacing:0px;word-spacing:0px;writing-mode:lr-tb;text-anchor:middle;fill:#000000;fill-opacity:1;stroke:none;stroke-width:2.7665832;stroke-linecap:butt;stroke-linejoin:miter;stroke-miterlimit:4;stroke-dasharray:none;stroke-opacity:1"
         xml:space="preserve"><tspan
           style="font-style:normal;font-variant:normal;font-weight:normal;font-stretch:normal;font-size:13.75000095px;line-height:125%;font-family:Sans;-inkscape-font-specification:'Sans, Normal';text-align:center;writing-mode:lr-tb;text-anchor:middle;stroke-width:2.7665832;stroke-miterlimit:4;stroke-dasharray:none"
           y="346.51169"
           x="61.783913"
           id="tspan4245-9-1"
           sodipodi:role="line">lcdmzero</tspan></text>
    </g>
    <text
       xml:space="preserve"
       style="font-style:normal;font-weight:normal;font-size:36.14566803px;line-height:125%;font-family:Sans;letter-spacing:0px;word-spacing:0px;fill:#000000;fill-opacity:1;stroke:none;stroke-width:0;stroke-linecap:butt;stroke-linejoin:miter;stroke-miterlimit:4;stroke-dasharray:none;stroke-opacity:1"
       x="158.20802"
       y="275.42212"
       id="text4222"
       sodipodi:linespacing="125%"><tspan
         sodipodi:role="line"
         id="tspan4224"
         x="158.20802"
         y="275.42212"
         style="font-style:normal;font-variant:normal;font-weight:normal;font-stretch:normal;font-size:28.125px;font-family:Cantarell;-inkscape-font-specification:Cantarell;text-align:center;text-anchor:middle;stroke-width:0;stroke-miterlimit:4;stroke-dasharray:none">idbre</tspan></text>
    <g
       id="g4324">
      <g
         style="fill:#8ab88a;fill-opacity:1;stroke-width:2.42197752;stroke-miterlimit:4;stroke-dasharray:none"
         transform="matrix(1.1917764,0,0,0.89401552,-16.246952,2.8670696)"
         id="g4631">
        <rect
           style="fill:#8ab88a;fill-opacity:1;stroke:#000000;stroke-width:2.42197752;stroke-linecap:butt;stroke-linejoin:miter;stroke-miterlimit:4;stroke-dasharray:none;stroke-opacity:1"
           id="rect4226-3"
           width="68.72892"
           height="35.641117"
           x="192.7784"
           y="315.25592" />
        <text
           xml:space="preserve"
           style="font-style:normal;font-weight:normal;font-size:40px;line-height:125%;font-family:Sans;text-align:center;letter-spacing:0px;word-spacing:0px;text-anchor:middle;fill:#8ab88a;fill-opacity:1;stroke:none;stroke-width:2.42197752;stroke-linecap:butt;stroke-linejoin:miter;stroke-miterlimit:4;stroke-dasharray:none;stroke-opacity:1"
           x="227.16005"
           y="341.92648"
           id="text4243-2-8"
           sodipodi:linespacing="125%"><tspan
             sodipodi:role="line"
             id="tspan4245-9-8"
             x="227.16005"
             y="341.92648"
             style="font-style:normal;font-variant:normal;font-weight:normal;font-stretch:normal;font-size:25px;font-family:cantarell;-inkscape-font-specification:cantarell;fill:#8ab88a;fill-opacity:1;stroke-width:2.42197752;stroke-miterlimit:4;stroke-dasharray:none" /></text>
      </g>
      <text
         sodipodi:linespacing="125%"
         id="text4243-2-1"
         y="306.03378"
         x="253.67438"
         style="font-style:normal;font-variant:normal;font-weight:normal;font-stretch:normal;font-size:13.75000095px;line-height:125%;font-family:Sans;-inkscape-font-specification:'Sans, Normal';text-align:center;letter-spacing:0px;word-spacing:0px;writing-mode:lr-tb;text-anchor:middle;fill:#000000;fill-opacity:1;stroke:none;stroke-width:2.7665832;stroke-linecap:butt;stroke-linejoin:miter;stroke-miterlimit:4;stroke-dasharray:none;stroke-opacity:1"
         xml:space="preserve"><tspan
           style="font-style:normal;font-variant:normal;font-weight:normal;font-stretch:normal;font-size:13.75000095px;line-height:125%;font-family:Sans;-inkscape-font-specification:'Sans, Normal';text-align:center;writing-mode:lr-tb;text-anchor:middle;stroke-width:2.7665832;stroke-miterlimit:4;stroke-dasharray:none"
           y="306.03378"
           x="253.67438"
           id="tspan4245-9-6"
           sodipodi:role="line">lcderef</tspan></text>
    </g>
    <g
       id="g3586">
      <g
         style="fill:#8ab88a;fill-opacity:1;stroke-width:2.41916752;stroke-miterlimit:4;stroke-dasharray:none"
         transform="matrix(1.1951444,0,0,0.89356842,-44.222115,38.39159)"
         id="g4625-9">
        <g
           style="fill:#8ab88a;fill-opacity:1;stroke-width:2.41916752;stroke-miterlimit:4;stroke-dasharray:none"
           id="g4622-3">
          <rect
             y="320.97021"
             x="134.92125"
             height="35.641117"
             width="68.72892"
             id="rect4226-8-6"
             style="fill:#8ab88a;fill-opacity:1;stroke:#000000;stroke-width:2.41916752;stroke-linecap:butt;stroke-linejoin:miter;stroke-miterlimit:4;stroke-dasharray:none;stroke-opacity:1" />
        </g>
        <text
           xml:space="preserve"
           style="font-style:normal;font-weight:normal;font-size:40px;line-height:125%;font-family:Sans;text-align:center;letter-spacing:0px;word-spacing:0px;text-anchor:middle;fill:#8ab88a;fill-opacity:1;stroke:none;stroke-width:2.41916752;stroke-linecap:butt;stroke-linejoin:miter;stroke-miterlimit:4;stroke-dasharray:none;stroke-opacity:1"
           x="169.3029"
           y="347.64078"
           id="text4243-2-6-4"
           sodipodi:linespacing="125%"><tspan
             sodipodi:role="line"
             id="tspan4245-9-3-3"
             x="169.3029"
             y="347.64078"
             style="font-style:normal;font-variant:normal;font-weight:normal;font-stretch:normal;font-size:25px;font-family:cantarell;-inkscape-font-specification:cantarell;fill:#8ab88a;fill-opacity:1;stroke-width:2.41916752;stroke-miterlimit:4;stroke-dasharray:none" /></text>
      </g>
      <text
         sodipodi:linespacing="125%"
         id="text4243-2-7"
         y="345.94937"
         x="157.82684"
         style="font-style:normal;font-variant:normal;font-weight:normal;font-stretch:normal;font-size:13.75000095px;line-height:125%;font-family:Sans;-inkscape-font-specification:'Sans, Normal';text-align:center;letter-spacing:0px;word-spacing:0px;writing-mode:lr-tb;text-anchor:middle;fill:#000000;fill-opacity:1;stroke:none;stroke-width:2.7665832;stroke-linecap:butt;stroke-linejoin:miter;stroke-miterlimit:4;stroke-dasharray:none;stroke-opacity:1"
         xml:space="preserve"><tspan
           style="font-style:normal;font-variant:normal;font-weight:normal;font-stretch:normal;font-size:12.50000095px;line-height:125%;font-family:Sans;-inkscape-font-specification:'Sans, Normal';text-align:center;letter-spacing:0px;writing-mode:lr-tb;text-anchor:middle;stroke-width:2.7665832;stroke-miterlimit:4;stroke-dasharray:none"
           y="345.94937"
           x="157.82684"
           id="tspan4245-9-64"
           sodipodi:role="line">lcptraddsub</tspan></text>
    </g>
    <g
       id="g4631-9"
       transform="matrix(1.1951444,0,0,0.89356842,-16.956096,84.50942)"
       style="fill:#8ab88a;fill-opacity:1;stroke-width:2.41916752;stroke-miterlimit:4;stroke-dasharray:none">
      <rect
         y="315.25592"
         x="192.7784"
         height="35.641117"
         width="68.72892"
         id="rect4226-3-8"
         style="fill:#8ab88a;fill-opacity:1;stroke:#000000;stroke-width:2.41916752;stroke-linecap:butt;stroke-linejoin:miter;stroke-miterlimit:4;stroke-dasharray:none;stroke-opacity:1" />
      <text
         sodipodi:linespacing="125%"
         id="text4243-2-8-4"
         y="341.92648"
         x="227.16005"
         style="font-style:normal;font-weight:normal;font-size:40px;line-height:125%;font-family:Sans;text-align:center;letter-spacing:0px;word-spacing:0px;text-anchor:middle;fill:#8ab88a;fill-opacity:1;stroke:none;stroke-width:2.41916752;stroke-linecap:butt;stroke-linejoin:miter;stroke-miterlimit:4;stroke-dasharray:none;stroke-opacity:1"
         xml:space="preserve"><tspan
           style="font-style:normal;font-variant:normal;font-weight:normal;font-stretch:normal;font-size:25px;font-family:cantarell;-inkscape-font-specification:cantarell;fill:#8ab88a;fill-opacity:1;stroke-width:2.41916752;stroke-miterlimit:4;stroke-dasharray:none"
           y="341.92648"
           x="227.16005"
           id="tspan4245-9-8-2"
           sodipodi:role="line" /></text>
    </g>
    <text
       xml:space="preserve"
       style="font-style:normal;font-variant:normal;font-weight:normal;font-stretch:normal;font-size:13.75000095px;line-height:125%;font-family:Sans;-inkscape-font-specification:'Sans, Normal';text-align:center;letter-spacing:0px;word-spacing:0px;writing-mode:lr-tb;text-anchor:middle;fill:#000000;fill-opacity:1;stroke:none;stroke-width:2.7665832;stroke-linecap:butt;stroke-linejoin:miter;stroke-miterlimit:4;stroke-dasharray:none;stroke-opacity:1"
       x="253.98782"
       y="386.3432"
       id="text4243-2-29"
       sodipodi:linespacing="125%"><tspan
         sodipodi:role="line"
         id="tspan4245-9-38"
         x="253.98782"
         y="386.3432"
         style="font-style:normal;font-variant:normal;font-weight:normal;font-stretch:normal;font-size:11.25000095px;line-height:125%;font-family:Sans;-inkscape-font-specification:'Sans, Normal';text-align:center;letter-spacing:0px;writing-mode:lr-tb;text-anchor:middle;stroke-width:2.7665832;stroke-miterlimit:4;stroke-dasharray:none">lcshfnegover</tspan></text>
    <g
       id="g4397">
      <g
         style="fill:#8ab88a;fill-opacity:1;stroke-width:2.41916752;stroke-miterlimit:4;stroke-dasharray:none"
         transform="matrix(1.1951444,0,0,0.89356842,-180.04352,166.97578)"
         id="g4636">
        <rect
           style="fill:#8ab88a;fill-opacity:1;stroke:#000000;stroke-width:2.41916752;stroke-linecap:butt;stroke-linejoin:miter;stroke-miterlimit:4;stroke-dasharray:none;stroke-opacity:1"
           id="rect4226-9"
           width="68.72892"
           height="35.641117"
           x="248.49268"
           y="314.54166" />
        <text
           xml:space="preserve"
           style="font-style:normal;font-weight:normal;font-size:40px;line-height:125%;font-family:Sans;text-align:center;letter-spacing:0px;word-spacing:0px;text-anchor:middle;fill:#8ab88a;fill-opacity:1;stroke:none;stroke-width:2.41916752;stroke-linecap:butt;stroke-linejoin:miter;stroke-miterlimit:4;stroke-dasharray:none;stroke-opacity:1"
           x="282.87433"
           y="341.21222"
           id="text4243-2-4"
           sodipodi:linespacing="125%"><tspan
             sodipodi:role="line"
             id="tspan4245-9-9"
             x="282.87433"
             y="341.21222"
             style="font-style:normal;font-variant:normal;font-weight:normal;font-stretch:normal;font-size:25px;font-family:cantarell;-inkscape-font-specification:cantarell;fill:#8ab88a;fill-opacity:1;stroke-width:2.41916752;stroke-miterlimit:4;stroke-dasharray:none" /></text>
      </g>
      <text
         sodipodi:linespacing="125%"
         id="text4243-2-5"
         y="469.07031"
         x="158.00488"
         style="font-style:normal;font-variant:normal;font-weight:normal;font-stretch:normal;font-size:15.00000095px;line-height:125%;font-family:Sans;-inkscape-font-specification:'Sans, Normal';text-align:center;letter-spacing:0px;word-spacing:0px;writing-mode:lr-tb;text-anchor:middle;fill:#000000;fill-opacity:1;stroke:none;stroke-width:2.7665832;stroke-linecap:butt;stroke-linejoin:miter;stroke-miterlimit:4;stroke-dasharray:none;stroke-opacity:1"
         xml:space="preserve"><tspan
           style="font-style:normal;font-variant:normal;font-weight:normal;font-stretch:normal;font-size:13.75000095px;line-height:125%;font-family:Sans;-inkscape-font-specification:'Sans, Normal';text-align:center;writing-mode:lr-tb;text-anchor:middle;stroke-width:2.7665832;stroke-miterlimit:4;stroke-dasharray:none"
           y="469.07031"
           x="158.00488"
           id="tspan4245-9-69"
           sodipodi:role="line">lregdecl</tspan></text>
    </g>
    <g
       id="g3574">
      <rect
         y="284.86374"
         x="117.12273"
         height="31.847776"
         width="82.140984"
         id="rect4226-8"
         style="fill:#8ab88a;fill-opacity:1;stroke:#000000;stroke-width:2.50000024;stroke-linecap:butt;stroke-linejoin:miter;stroke-miterlimit:4;stroke-dasharray:none;stroke-opacity:1" />
      <text
         sodipodi:linespacing="125%"
         id="text4243-2-16"
         y="305.24887"
         x="158.174"
         style="font-style:normal;font-variant:normal;font-weight:normal;font-stretch:normal;font-size:13.75000095px;line-height:125%;font-family:Sans;-inkscape-font-specification:'Sans, Normal';text-align:center;letter-spacing:0px;word-spacing:0px;writing-mode:lr-tb;text-anchor:middle;fill:#000000;fill-opacity:1;stroke:none;stroke-width:2.7665832;stroke-linecap:butt;stroke-linejoin:miter;stroke-miterlimit:4;stroke-dasharray:none;stroke-opacity:1"
         xml:space="preserve"><tspan
           style="font-style:normal;font-variant:normal;font-weight:normal;font-stretch:normal;font-size:11.25000095px;line-height:125%;font-family:Sans;-inkscape-font-specification:'Sans, Normal';text-align:center;letter-spacing:0px;writing-mode:lr-tb;text-anchor:middle;stroke-width:2.7665832;stroke-miterlimit:4;stroke-dasharray:none"
           y="305.24887"
           x="158.174"
           id="tspan4245-9-5"
           sodipodi:role="line">lcbtwzeroneg</tspan></text>
    </g>
    <g
       id="g4314">
      <rect
         y="284.9877"
         x="21.515043"
         height="31.847776"
         width="82.140984"
         id="rect4226"
         style="fill:#8ab88a;fill-opacity:1;stroke:#000000;stroke-width:2.50000024;stroke-linecap:butt;stroke-linejoin:miter;stroke-miterlimit:4;stroke-dasharray:none;stroke-opacity:1" />
      <text
         sodipodi:linespacing="125%"
         id="text4243-2"
         y="306.03763"
         x="62.578819"
         style="font-style:normal;font-variant:normal;font-weight:normal;font-stretch:normal;font-size:13.75000095px;line-height:125%;font-family:Sans;-inkscape-font-specification:'Sans, Normal';text-align:center;letter-spacing:0px;word-spacing:0px;writing-mode:lr-tb;text-anchor:middle;fill:#000000;fill-opacity:1;stroke:none;stroke-width:2.7665832;stroke-linecap:butt;stroke-linejoin:miter;stroke-miterlimit:4;stroke-dasharray:none;stroke-opacity:1"
         xml:space="preserve"><tspan
           style="font-style:normal;font-variant:normal;font-weight:normal;font-stretch:normal;font-size:13.75000095px;line-height:125%;font-family:Sans;-inkscape-font-specification:'Sans, Normal';text-align:center;writing-mode:lr-tb;text-anchor:middle;stroke-width:2.7665832;stroke-miterlimit:4;stroke-dasharray:none"
           y="306.03763"
           x="62.578819"
           id="tspan4245-9"
           sodipodi:role="line">lcdecl</tspan></text>
    </g>
    <g
       id="g4332">
      <g
         style="fill:#8ab88a;fill-opacity:1;stroke-width:2.41916752;stroke-miterlimit:4;stroke-dasharray:none"
         transform="matrix(1.1951444,0,0,0.89356842,-16.956098,43.477712)"
         id="g4631-5">
        <rect
           style="fill:#8ab88a;fill-opacity:1;stroke:#000000;stroke-width:2.41916752;stroke-linecap:butt;stroke-linejoin:miter;stroke-miterlimit:4;stroke-dasharray:none;stroke-opacity:1"
           id="rect4226-3-3"
           width="68.72892"
           height="35.641117"
           x="192.7784"
           y="315.25592" />
        <text
           xml:space="preserve"
           style="font-style:normal;font-weight:normal;font-size:40px;line-height:125%;font-family:Sans;text-align:center;letter-spacing:0px;word-spacing:0px;text-anchor:middle;fill:#8ab88a;fill-opacity:1;stroke:none;stroke-width:2.41916752;stroke-linecap:butt;stroke-linejoin:miter;stroke-miterlimit:4;stroke-dasharray:none;stroke-opacity:1"
           x="227.16005"
           y="341.92648"
           id="text4243-2-8-9"
           sodipodi:linespacing="125%"><tspan
             sodipodi:role="line"
             id="tspan4245-9-8-0"
             x="227.16005"
             y="341.92648"
             style="font-style:normal;font-variant:normal;font-weight:normal;font-stretch:normal;font-size:25px;font-family:cantarell;-inkscape-font-specification:cantarell;fill:#8ab88a;fill-opacity:1;stroke-width:2.41916752;stroke-miterlimit:4;stroke-dasharray:none" /></text>
      </g>
      <text
         sodipodi:linespacing="125%"
         id="text4243-2-64"
         y="346.50345"
         x="254.24051"
         style="font-style:normal;font-variant:normal;font-weight:normal;font-stretch:normal;font-size:13.75000095px;line-height:125%;font-family:Sans;-inkscape-font-specification:'Sans, Normal';text-align:center;letter-spacing:0px;word-spacing:0px;writing-mode:lr-tb;text-anchor:middle;fill:#000000;fill-opacity:1;stroke:none;stroke-width:2.7665832;stroke-linecap:butt;stroke-linejoin:miter;stroke-miterlimit:4;stroke-dasharray:none;stroke-opacity:1"
         xml:space="preserve"><tspan
           style="font-style:normal;font-variant:normal;font-weight:normal;font-stretch:normal;font-size:13.75000095px;line-height:125%;font-family:Sans;-inkscape-font-specification:'Sans, Normal';text-align:center;writing-mode:lr-tb;text-anchor:middle;stroke-width:2.7665832;stroke-miterlimit:4;stroke-dasharray:none"
           y="346.50345"
           x="254.24051"
           id="tspan4245-9-4"
           sodipodi:role="line">lcptrcmp</tspan></text>
    </g>
    <g
       id="g4354">
      <rect
         style="fill:#8ab88a;fill-opacity:1;stroke:#000000;stroke-width:2.50000024;stroke-linecap:butt;stroke-linejoin:miter;stroke-miterlimit:4;stroke-dasharray:none;stroke-opacity:1"
         id="rect4226-35"
         width="82.140984"
         height="31.847778"
         x="21.18471"
         y="366.41006" />
      <text
         sodipodi:linespacing="125%"
         id="text4243-2-40"
         y="387.51038"
         x="61.479748"
         style="font-style:normal;font-variant:normal;font-weight:normal;font-stretch:normal;font-size:13.75000095px;line-height:125%;font-family:Sans;-inkscape-font-specification:'Sans, Normal';text-align:center;letter-spacing:0px;word-spacing:0px;writing-mode:lr-tb;text-anchor:middle;fill:#000000;fill-opacity:1;stroke:none;stroke-width:2.7665832;stroke-linecap:butt;stroke-linejoin:miter;stroke-miterlimit:4;stroke-dasharray:none;stroke-opacity:1"
         xml:space="preserve"><tspan
           style="font-style:normal;font-variant:normal;font-weight:normal;font-stretch:normal;font-size:13.75000095px;line-height:125%;font-family:Sans;-inkscape-font-specification:'Sans, Normal';text-align:center;writing-mode:lr-tb;text-anchor:middle;stroke-width:2.7665832;stroke-miterlimit:4;stroke-dasharray:none"
           y="387.51038"
           x="61.479748"
           id="tspan4245-9-36"
           sodipodi:role="line">lcptrdiff</tspan></text>
    </g>
    <g
       id="g4359">
      <g
         style="fill:#8ab88a;fill-opacity:1;stroke-width:2.41916752;stroke-miterlimit:4;stroke-dasharray:none"
         transform="matrix(1.1951444,0,0,0.89356842,-43.986289,79.35229)"
         id="g4625-6">
        <g
           style="fill:#8ab88a;fill-opacity:1;stroke-width:2.41916752;stroke-miterlimit:4;stroke-dasharray:none"
           id="g4622-2">
          <rect
             y="320.97021"
             x="134.92125"
             height="35.641117"
             width="68.72892"
             id="rect4226-8-7"
             style="fill:#8ab88a;fill-opacity:1;stroke:#000000;stroke-width:2.41916752;stroke-linecap:butt;stroke-linejoin:miter;stroke-miterlimit:4;stroke-dasharray:none;stroke-opacity:1" />
        </g>
        <text
           xml:space="preserve"
           style="font-style:normal;font-weight:normal;font-size:40px;line-height:125%;font-family:Sans;text-align:center;letter-spacing:0px;word-spacing:0px;text-anchor:middle;fill:#8ab88a;fill-opacity:1;stroke:none;stroke-width:2.41916752;stroke-linecap:butt;stroke-linejoin:miter;stroke-miterlimit:4;stroke-dasharray:none;stroke-opacity:1"
           x="169.3029"
           y="347.64078"
           id="text4243-2-6-0"
           sodipodi:linespacing="125%"><tspan
             sodipodi:role="line"
             id="tspan4245-9-3-6"
             x="169.3029"
             y="347.64078"
             style="font-style:normal;font-variant:normal;font-weight:normal;font-stretch:normal;font-size:25px;font-family:cantarell;-inkscape-font-specification:cantarell;fill:#8ab88a;fill-opacity:1;stroke-width:2.41916752;stroke-miterlimit:4;stroke-dasharray:none" /></text>
      </g>
      <text
         sodipodi:linespacing="125%"
         id="text4243-2-2"
         y="387.5127"
         x="157.85454"
         style="font-style:normal;font-variant:normal;font-weight:normal;font-stretch:normal;font-size:13.75000095px;line-height:125%;font-family:Sans;-inkscape-font-specification:'Sans, Normal';text-align:center;letter-spacing:0px;word-spacing:0px;writing-mode:lr-tb;text-anchor:middle;fill:#000000;fill-opacity:1;stroke:none;stroke-width:2.7665832;stroke-linecap:butt;stroke-linejoin:miter;stroke-miterlimit:4;stroke-dasharray:none;stroke-opacity:1"
         xml:space="preserve"><tspan
           style="font-style:normal;font-variant:normal;font-weight:normal;font-stretch:normal;font-size:13.75000095px;line-height:125%;font-family:Sans;-inkscape-font-specification:'Sans, Normal';text-align:center;writing-mode:lr-tb;text-anchor:middle;stroke-width:2.7665832;stroke-miterlimit:4;stroke-dasharray:none"
           y="387.5127"
           x="157.85454"
           id="tspan4245-9-87"
           sodipodi:role="line">lcsgndshft</tspan></text>
    </g>
    <g
       id="g4392">
      <rect
         style="fill:#8ab88a;fill-opacity:1;stroke:#000000;stroke-width:2.50000024;stroke-linecap:butt;stroke-linejoin:miter;stroke-miterlimit:4;stroke-dasharray:none;stroke-opacity:1"
         id="rect4226-2"
         width="82.140984"
         height="31.847778"
         x="21.434381"
         y="407.0242" />
      <text
         sodipodi:linespacing="125%"
         id="text4243-2-78"
         y="427.9967"
         x="62.02483"
         style="font-style:normal;font-variant:normal;font-weight:normal;font-stretch:normal;font-size:13.75000095px;line-height:125%;font-family:Sans;-inkscape-font-specification:'Sans, Normal';text-align:center;letter-spacing:0px;word-spacing:0px;writing-mode:lr-tb;text-anchor:middle;fill:#000000;fill-opacity:1;stroke:none;stroke-width:2.7665832;stroke-linecap:butt;stroke-linejoin:miter;stroke-miterlimit:4;stroke-dasharray:none;stroke-opacity:1"
         xml:space="preserve"><tspan
           style="font-style:normal;font-variant:normal;font-weight:normal;font-stretch:normal;font-size:13.75000095px;line-height:125%;font-family:Sans;-inkscape-font-specification:'Sans, Normal';text-align:center;writing-mode:lr-tb;text-anchor:middle;stroke-width:2.7665832;stroke-miterlimit:4;stroke-dasharray:none"
           y="427.9967"
           x="62.02483"
           id="tspan4245-9-0"
           sodipodi:role="line">lcsubscript</tspan></text>
    </g>
    <g
       id="g4593">
      <g
         style="fill:#8ab88a;fill-opacity:1;stroke-width:2.41916752;stroke-miterlimit:4;stroke-dasharray:none"
         transform="matrix(1.1951444,0,0,0.89356842,-83.407072,125.97601)"
         id="g4636-3">
        <rect
           style="fill:#8ab88a;fill-opacity:1;stroke:#000000;stroke-width:2.41916752;stroke-linecap:butt;stroke-linejoin:miter;stroke-miterlimit:4;stroke-dasharray:none;stroke-opacity:1"
           id="rect4226-9-3"
           width="68.72892"
           height="35.641117"
           x="248.49268"
           y="314.54166" />
        <text
           xml:space="preserve"
           style="font-style:normal;font-weight:normal;font-size:40px;line-height:125%;font-family:Sans;text-align:center;letter-spacing:0px;word-spacing:0px;text-anchor:middle;fill:#8ab88a;fill-opacity:1;stroke:none;stroke-width:2.41916752;stroke-linecap:butt;stroke-linejoin:miter;stroke-miterlimit:4;stroke-dasharray:none;stroke-opacity:1"
           x="282.87433"
           y="341.21222"
           id="text4243-2-4-7"
           sodipodi:linespacing="125%"><tspan
             sodipodi:role="line"
             id="tspan4245-9-9-0"
             x="282.87433"
             y="341.21222"
             style="font-style:normal;font-variant:normal;font-weight:normal;font-stretch:normal;font-size:25px;font-family:cantarell;-inkscape-font-specification:cantarell;fill:#8ab88a;fill-opacity:1;stroke-width:2.41916752;stroke-miterlimit:4;stroke-dasharray:none" /></text>
      </g>
      <text
         sodipodi:linespacing="125%"
         id="text4243-2-49"
         y="427.76599"
         x="254.37614"
         style="font-style:normal;font-variant:normal;font-weight:normal;font-stretch:normal;font-size:13.75000095px;line-height:125%;font-family:Sans;-inkscape-font-specification:'Sans, Normal';text-align:center;letter-spacing:0px;word-spacing:0px;writing-mode:lr-tb;text-anchor:middle;fill:#000000;fill-opacity:1;stroke:none;stroke-width:2.7665832;stroke-linecap:butt;stroke-linejoin:miter;stroke-miterlimit:4;stroke-dasharray:none;stroke-opacity:1"
         xml:space="preserve"><tspan
           style="font-style:normal;font-variant:normal;font-weight:normal;font-stretch:normal;font-size:13.75000095px;line-height:125%;font-family:Sans;-inkscape-font-specification:'Sans, Normal';text-align:center;writing-mode:lr-tb;text-anchor:middle;stroke-width:2.7665832;stroke-miterlimit:4;stroke-dasharray:none"
           y="427.76599"
           x="254.37614"
           id="tspan4245-9-65"
           sodipodi:role="line">lfixptrcmp</tspan></text>
    </g>
    <g
       id="g4585">
      <g
         style="fill:#8ab88a;fill-opacity:1;stroke-width:2.41916752;stroke-miterlimit:4;stroke-dasharray:none"
         transform="matrix(1.1951444,0,0,0.89356842,-180.07346,125.90607)"
         id="g4636-32">
        <rect
           style="fill:#8ab88a;fill-opacity:1;stroke:#000000;stroke-width:2.41916752;stroke-linecap:butt;stroke-linejoin:miter;stroke-miterlimit:4;stroke-dasharray:none;stroke-opacity:1"
           id="rect4226-9-1"
           width="68.72892"
           height="35.641117"
           x="248.49268"
           y="314.54166" />
        <text
           xml:space="preserve"
           style="font-style:normal;font-weight:normal;font-size:40px;line-height:125%;font-family:Sans;text-align:center;letter-spacing:0px;word-spacing:0px;text-anchor:middle;fill:#8ab88a;fill-opacity:1;stroke:none;stroke-width:2.41916752;stroke-linecap:butt;stroke-linejoin:miter;stroke-miterlimit:4;stroke-dasharray:none;stroke-opacity:1"
           x="282.87433"
           y="341.21222"
           id="text4243-2-4-4"
           sodipodi:linespacing="125%"><tspan
             sodipodi:role="line"
             id="tspan4245-9-9-6"
             x="282.87433"
             y="341.21222"
             style="font-style:normal;font-variant:normal;font-weight:normal;font-stretch:normal;font-size:25px;font-family:cantarell;-inkscape-font-specification:cantarell;fill:#8ab88a;fill-opacity:1;stroke-width:2.41916752;stroke-miterlimit:4;stroke-dasharray:none" /></text>
      </g>
      <text
         sodipodi:linespacing="125%"
         id="text4243-2-68"
         y="428.05936"
         x="157.92459"
         style="font-style:normal;font-variant:normal;font-weight:normal;font-stretch:normal;font-size:13.75000095px;line-height:125%;font-family:Sans;-inkscape-font-specification:'Sans, Normal';text-align:center;letter-spacing:0px;word-spacing:0px;writing-mode:lr-tb;text-anchor:middle;fill:#000000;fill-opacity:1;stroke:none;stroke-width:2.7665832;stroke-linecap:butt;stroke-linejoin:miter;stroke-miterlimit:4;stroke-dasharray:none;stroke-opacity:1"
         xml:space="preserve"><tspan
           style="font-style:normal;font-variant:normal;font-weight:normal;font-stretch:normal;font-size:13.75000095px;line-height:125%;font-family:Sans;-inkscape-font-specification:'Sans, Normal';text-align:center;writing-mode:lr-tb;text-anchor:middle;stroke-width:2.7665832;stroke-miterlimit:4;stroke-dasharray:none"
           y="428.05936"
           x="157.92459"
           id="tspan4245-9-86"
           sodipodi:role="line">lfixptrasgn</tspan></text>
    </g>
    <text
       xml:space="preserve"
       style="font-style:normal;font-weight:normal;font-size:40px;line-height:125%;font-family:Sans;letter-spacing:0px;word-spacing:0px;fill:#000000;fill-opacity:1;stroke:none;stroke-width:1px;stroke-linecap:butt;stroke-linejoin:miter;stroke-opacity:1"
       x="477.21506"
       y="141.17793"
       id="text3500"
       sodipodi:linespacing="125%"><tspan
         sodipodi:role="line"
         id="tspan3502"
         x="477.21506"
         y="141.17793" /><tspan
         sodipodi:role="line"
         x="477.21506"
         y="191.17793"
         id="tspan3504" /></text>
  </g>
</svg>
